﻿Code,Pilihan 1,Pilihan 2,Pilihan 3
40764100035,6412020,6412035,6412018
40764100036,6411005,6412028,6412010
40764100037,6412008,6411013,6412003
40764100038,6411005,6411010,
40764100039,6412008,6462008,
40764100040,6411011,6411009,
